<?xml version="1.0" encoding="UTF-8" standalone="no"?>
<!-- Created with Inkscape (http://www.inkscape.org/) -->
<svg
   xmlns:dc="http://purl.org/dc/elements/1.1/"
   xmlns:cc="http://web.resource.org/cc/"
   xmlns:rdf="http://www.w3.org/1999/02/22-rdf-syntax-ns#"
   xmlns:svg="http://www.w3.org/2000/svg"
   xmlns="http://www.w3.org/2000/svg"
   xmlns:sodipodi="http://sodipodi.sourceforge.net/DTD/sodipodi-0.dtd"
   xmlns:inkscape="http://www.inkscape.org/namespaces/inkscape"
   width="744.09448819"
   height="1052.3622047"
   id="svg2"
   sodipodi:version="0.32"
   inkscape:version="0.44.1"
   sodipodi:docbase="C:\jmpelletier\nurun\projets\sofi\doc\guide\fr\images\infrastructure\hibernate"
   sodipodi:docname="schema-authentification.svg">
  <defs
     id="defs4">
    <marker
       inkscape:stockid="Arrow2Lstart"
       orient="auto"
       refY="0.0"
       refX="0.0"
       id="Arrow2Lstart"
       style="overflow:visible">
      <path
         id="path3814"
         style="font-size:12.0;fill-rule:evenodd;stroke-width:0.62500000;stroke-linejoin:round"
         d="M 8.7185878,4.0337352 L -2.2072895,0.016013256 L 8.7185884,-4.0017078 C 6.9730900,-1.6296469 6.9831476,1.6157441 8.7185878,4.0337352 z "
         transform="scale(1.1) translate(1,0)" />
    </marker>
    <marker
       inkscape:stockid="Arrow2Lend"
       orient="auto"
       refY="0.0"
       refX="0.0"
       id="Arrow2Lend"
       style="overflow:visible;">
      <path
         id="path3811"
         style="font-size:12.0;fill-rule:evenodd;stroke-width:0.62500000;stroke-linejoin:round;"
         d="M 8.7185878,4.0337352 L -2.2072895,0.016013256 L 8.7185884,-4.0017078 C 6.9730900,-1.6296469 6.9831476,1.6157441 8.7185878,4.0337352 z "
         transform="scale(1.1) rotate(180) translate(1,0)" />
    </marker>
    <marker
       inkscape:stockid="Arrow1Lend"
       orient="auto"
       refY="0.0"
       refX="0.0"
       id="Arrow1Lend"
       style="overflow:visible;">
      <path
         id="path3829"
         d="M 0.0,0.0 L 5.0,-5.0 L -12.5,0.0 L 5.0,5.0 L 0.0,0.0 z "
         style="fill-rule:evenodd;stroke:#000000;stroke-width:1.0pt;marker-start:none;"
         transform="scale(0.8) rotate(180) translate(12.5,0)" />
    </marker>
  </defs>
  <sodipodi:namedview
     id="base"
     pagecolor="#ffffff"
     bordercolor="#666666"
     borderopacity="1.0"
     gridtolerance="10000"
     guidetolerance="10"
     objecttolerance="10"
     inkscape:pageopacity="0.0"
     inkscape:pageshadow="2"
     inkscape:zoom="0.98994949"
     inkscape:cx="537.9172"
     inkscape:cy="736.35078"
     inkscape:document-units="px"
     inkscape:current-layer="layer1"
     inkscape:window-width="1680"
     inkscape:window-height="1001"
     inkscape:window-x="-4"
     inkscape:window-y="-4" />
  <metadata
     id="metadata7">
    <rdf:RDF>
      <cc:Work
         rdf:about="">
        <dc:format>image/svg+xml</dc:format>
        <dc:type
           rdf:resource="http://purl.org/dc/dcmitype/StillImage" />
      </cc:Work>
    </rdf:RDF>
  </metadata>
  <g
     inkscape:label="Layer 1"
     inkscape:groupmode="layer"
     id="layer1">
    <rect
       style="opacity:1;fill:#8787de;fill-opacity:0.48760328;fill-rule:evenodd;stroke:none;stroke-width:1;stroke-miterlimit:4;stroke-dasharray:6, 2;stroke-dashoffset:0;stroke-opacity:1"
       id="rect1872"
       width="568.57141"
       height="340.09491"
       x="85.714279"
       y="129.50505"
       ry="2.4401522" />
    <path
       style="fill:none;fill-rule:evenodd;stroke:black;stroke-width:0.79202086px;stroke-linecap:butt;stroke-linejoin:miter;marker-end:url(#Arrow2Lend);stroke-opacity:1"
       d="M 252.17139,157.97248 L 252.43749,206.37268"
       id="path2772"
       inkscape:connector-type="polyline" />
    <rect
       style="opacity:1;fill:#5f6bd2;fill-opacity:1;fill-rule:evenodd;stroke:none;stroke-width:1;stroke-miterlimit:4;stroke-dasharray:6, 2;stroke-dashoffset:0;stroke-opacity:1"
       id="rect2760"
       width="256.42856"
       height="38.57143"
       x="130.71428"
       y="130.21933"
       ry="2.7418427" />
    <text
       xml:space="preserve"
       style="font-size:16px;font-style:normal;font-weight:normal;fill:white;fill-opacity:1;stroke:none;stroke-width:1px;stroke-linecap:butt;stroke-linejoin:miter;stroke-opacity:1;font-family:Bitstream Vera Sans"
       x="192.26842"
       y="153.64566"
       id="text2768"><tspan
         sodipodi:role="line"
         id="tspan2770"
         x="192.26842"
         y="153.64566">Filtre proxy ACEGI</tspan></text>
    <text
       xml:space="preserve"
       style="font-size:16px;font-style:normal;font-weight:normal;fill:black;fill-opacity:1;stroke:none;stroke-width:1px;stroke-linecap:butt;stroke-linejoin:miter;stroke-opacity:1;font-family:Bitstream Vera Sans"
       x="-343.673"
       y="111.44085"
       id="text5634"
       transform="matrix(0,-1,1,0,0,0)"><tspan
         sodipodi:role="line"
         id="tspan5636"
         x="-343.673"
         y="111.44085">Authentification</tspan></text>
    <rect
       style="fill:#8787de;fill-opacity:0.48760328;fill-rule:evenodd;stroke:none;stroke-width:1;stroke-miterlimit:4;stroke-dasharray:6, 2;stroke-dashoffset:0;stroke-opacity:1"
       id="rect3849"
       width="250.71428"
       height="163.57146"
       x="135.00002"
       y="209.1479"
       ry="1.1736113" />
    <text
       xml:space="preserve"
       style="font-size:16px;font-style:normal;font-weight:normal;fill:black;fill-opacity:1;stroke:none;stroke-width:1px;stroke-linecap:butt;stroke-linejoin:miter;stroke-opacity:1;font-family:Bitstream Vera Sans"
       x="175.2673"
       y="229.51732"
       id="text3851"><tspan
         sodipodi:role="line"
         id="tspan3853"
         x="175.2673"
         y="229.51732">Chaîne de filtres ACEGI</tspan></text>
    <g
       id="g5629"
       transform="translate(-149.2857,61.42857)">
      <rect
         ry="2.7418427"
         y="182.3622"
         x="319.28568"
         height="38.57143"
         width="190.71425"
         id="rect2766"
         style="opacity:1;fill:#5f6bd2;fill-opacity:1;fill-rule:evenodd;stroke:none;stroke-width:1;stroke-miterlimit:4;stroke-dasharray:6, 2;stroke-dashoffset:0;stroke-opacity:1" />
      <text
         id="text5625"
         y="205.69089"
         x="389.62717"
         style="font-size:16px;font-style:normal;font-weight:normal;fill:white;fill-opacity:1;stroke:none;stroke-width:1px;stroke-linecap:butt;stroke-linejoin:miter;stroke-opacity:1;font-family:Bitstream Vera Sans"
         xml:space="preserve"><tspan
           y="205.69089"
           x="389.62717"
           id="tspan5627"
           sodipodi:role="line">Logout</tspan></text>
    </g>
    <g
       id="g5667"
       transform="translate(-149.2857,61.42857)">
      <rect
         ry="2.7418427"
         y="224.50504"
         x="319.64288"
         height="38.57143"
         width="190.71425"
         id="rect5658"
         style="fill:#5f6bd2;fill-opacity:1;fill-rule:evenodd;stroke:none;stroke-width:1;stroke-miterlimit:4;stroke-dasharray:6, 2;stroke-dashoffset:0;stroke-opacity:1" />
      <text
         id="text5660"
         y="249.52122"
         x="360.83203"
         style="font-size:16px;font-style:normal;font-weight:normal;fill:white;fill-opacity:1;stroke:none;stroke-width:1px;stroke-linecap:butt;stroke-linejoin:miter;stroke-opacity:1;font-family:Bitstream Vera Sans"
         xml:space="preserve"><tspan
           y="249.52122"
           x="360.83203"
           id="tspan5662"
           sodipodi:role="line">Authentification</tspan></text>
    </g>
    <g
       id="g2204">
      <rect
         ry="2.7418427"
         y="328.07645"
         x="170.35718"
         height="38.57143"
         width="190.71425"
         id="rect5674"
         style="fill:#5f6bd2;fill-opacity:1;fill-rule:evenodd;stroke:none;stroke-width:1;stroke-miterlimit:4;stroke-dasharray:6, 2;stroke-dashoffset:0;stroke-opacity:1" />
      <text
         id="text5676"
         y="353.09265"
         x="211.54633"
         style="font-size:16px;font-style:normal;font-weight:normal;fill:white;fill-opacity:1;stroke:none;stroke-width:1px;stroke-linecap:butt;stroke-linejoin:miter;stroke-opacity:1;font-family:Bitstream Vera Sans"
         xml:space="preserve"><tspan
           y="353.09265"
           x="211.54633"
           id="tspan5678"
           sodipodi:role="line">RememberMe</tspan></text>
    </g>
    <rect
       style="fill:#212178;fill-opacity:1;fill-rule:evenodd;stroke:none;stroke-width:1;stroke-miterlimit:4;stroke-dasharray:6, 2;stroke-dashoffset:0;stroke-opacity:1"
       id="rect5683"
       width="219.28571"
       height="217.05725"
       x="412.85718"
       y="243.07649"
       ry="5.3013415" />
    <text
       xml:space="preserve"
       style="font-size:16px;font-style:normal;font-weight:normal;fill:white;fill-opacity:1;stroke:none;stroke-width:1px;stroke-linecap:butt;stroke-linejoin:miter;stroke-opacity:1;font-family:Bitstream Vera Sans"
       x="446.91129"
       y="281.50281"
       id="text5689"><tspan
         sodipodi:role="line"
         id="tspan5691"
         x="446.91129"
         y="281.50281">Modèle infrastructure</tspan></text>
    <path
       style="fill:none;fill-rule:evenodd;stroke:black;stroke-width:0.79731899px;stroke-linecap:butt;stroke-linejoin:miter;marker-start:url(#Arrow2Lstart);marker-end:url(#Arrow2Lend);stroke-opacity:1"
       d="M 410.94453,266.4145 L 361.85405,266.68038"
       id="path6586"
       inkscape:connector-type="polyline" />
    <path
       style="fill:none;fill-rule:evenodd;stroke:black;stroke-width:0.79731899px;stroke-linecap:butt;stroke-linejoin:miter;marker-start:url(#Arrow2Lstart);marker-end:url(#Arrow2Lend);stroke-opacity:1"
       d="M 411.6881,305.80067 L 362.59762,306.06655"
       id="path7473"
       inkscape:connector-type="polyline" />
    <path
       style="fill:none;fill-rule:evenodd;stroke:black;stroke-width:0.79731899px;stroke-linecap:butt;stroke-linejoin:miter;marker-start:url(#Arrow2Lstart);marker-end:url(#Arrow2Lend);stroke-opacity:1"
       d="M 410.97381,347.22924 L 361.88333,347.49512"
       id="path7475"
       inkscape:connector-type="polyline" />
    <path
       style="fill:none;fill-rule:evenodd;stroke:black;stroke-width:0.81699997;stroke-linecap:butt;stroke-linejoin:miter;marker-start:url(#Arrow2Lstart);marker-mid:none;marker-end:none;stroke-miterlimit:3.20000005;stroke-dasharray:none;stroke-opacity:1"
       d="M 167.80737,297.1105 C 139.38688,280.68193 168.63865,267.94177 168.63865,267.94177"
       id="path7477"
       sodipodi:nodetypes="cc" />
    <path
       style="fill:none;fill-rule:evenodd;stroke:black;stroke-width:0.81699997;stroke-linecap:butt;stroke-linejoin:miter;marker-start:url(#Arrow2Lstart);marker-mid:none;marker-end:none;stroke-miterlimit:3.20000005;stroke-dasharray:none;stroke-opacity:1"
       d="M 169.36547,341.88553 C 140.94498,325.45696 170.19675,312.7168 170.19675,312.7168"
       id="path9250"
       sodipodi:nodetypes="cc" />
    <rect
       style="fill:#5f6bd2;fill-opacity:1;fill-rule:evenodd;stroke:none;stroke-width:1;stroke-miterlimit:4;stroke-dasharray:6, 2;stroke-dashoffset:0;stroke-opacity:1"
       id="rect2211"
       width="190.71425"
       height="38.57143"
       x="171.32315"
       y="422.94431"
       ry="2.7418427" />
    <text
       xml:space="preserve"
       style="font-size:16px;font-style:normal;font-weight:normal;fill:white;fill-opacity:1;stroke:none;stroke-width:1px;stroke-linecap:butt;stroke-linejoin:miter;stroke-opacity:1;font-family:Bitstream Vera Sans"
       x="241.44591"
       y="447.86282"
       id="text2213"><tspan
         sodipodi:role="line"
         id="tspan2215"
         x="241.44591"
         y="447.86282">Accueil</tspan></text>
    <path
       style="fill:none;fill-rule:evenodd;stroke:black;stroke-width:0.79202086px;stroke-linecap:butt;stroke-linejoin:miter;marker-end:url(#Arrow2Lend);stroke-opacity:1"
       d="M 259.3757,373.25538 L 259.6418,421.65558"
       id="path3111"
       inkscape:connector-type="polyline" />
    <path
       style="fill:none;fill-rule:evenodd;stroke:black;stroke-width:0.79731899px;stroke-linecap:butt;stroke-linejoin:miter;marker-start:url(#Arrow2Lstart);marker-end:url(#Arrow2Lend);stroke-opacity:1"
       d="M 411.43366,440.0768 L 362.34318,440.34268"
       id="path3113"
       inkscape:connector-type="polyline" />
  </g>
</svg>
